…
``` r
class(building_permits)
```

    ## [1] "spec_tbl_df" "tbl_df"      "tbl"         "data.frame"

``` r
#Find unique values in column project_value
unique_proj.val <- building_permits %>%
  distinct(project_value)
print(unique_proj.val)
```

    ## # A tibble: 4,479 × 1
    ##    project_value
    ##            <dbl>
    ##  1             0
    ##  2         35000
    ##  3         15000
    ##  4        181178
    ##  5      65000000
    ##  6         25000
    ##  7         25750
    ##  8         44000
    ##  9        200000
    ## 10          4800
    ## # ℹ 4,469 more rows
…
``` r
#property_use
freq_prop_use <- building_permits %>%
  count(property_use)
print(freq_prop_use)
```

    ## # A tibble: 100 × 2
    ##    property_use                                                                n
    ##    <chr>                                                                   <int>
    ##  1 Agricultural Uses                                                           2
    ##  2 Cultural/Recreational Uses                                                364
    ##  3 Cultural/Recreational Uses,Dwelling Uses                                    3
    ##  4 Cultural/Recreational Uses,Dwelling Uses,Institutional Uses,Retail Uses     1
    ##  5 Cultural/Recreational Uses,Dwelling Uses,Office Uses                        1
    ##  6 Cultural/Recreational Uses,Dwelling Uses,Office Uses,Retail Uses,Servi…     1
    ##  7 Cultural/Recreational Uses,Dwelling Uses,Retail Uses                        1
    ##  8 Cultural/Recreational Uses,Institutional Uses                               1
    ##  9 Cultural/Recreational Uses,Manufacturing Uses                               1
    ## 10 Cultural/Recreational Uses,Office Uses                                     14
    ## # ℹ 90 more rows
…
    ## [1] "tbl_df"     "tbl"        "data.frame"

``` r
#Select specific columns
selected_data <- vancouver_trees %>%
  select(tree_id, date_planted, genus_name, species_name, cultivar_name, common_name, assigned, root_barrier, plant_area,   neighbourhood_name, street_side_name, diameter, longitude, latitude)

#Examine frequency of genus_name
freq_genus <- vancouver_trees %>%
  count(genus_name)
print(freq_genus)
```

    ## # A tibble: 97 × 2
    ##    genus_name      n
    ##    <chr>       <int>
    ##  1 ABIES         190
    ##  2 ACER        36062
    ##  3 AESCULUS     2570
    ##  4 AILANTHUS       4
    ##  5 ALBIZIA         1
    ##  6 ALNUS          74
    ##  7 AMELANCHIER   226
    ##  8 ARALIA          4
    ##  9 ARAUCARIA      10
    ## 10 ARBUTUS        10
    ## # ℹ 87 more rows
…
    ## # A tibble: 1 × 3
    ##     min       max    mean
    ##   <dbl>     <dbl>   <dbl>
    ## 1     0 807185500 609166.

``` r
#identify the unique values in the project_value
unique_values <- proj.val_organized %>%
  distinct(project_value)
print(unique_values)
```

    ## # A tibble: 4,478 × 1
    ##    project_value
    ##            <dbl>
    ##  1             0
    ##  2             1
    ##  3             2
    ##  4            10
    ##  5           100
    ##  6           150
    ##  7           200
    ##  8           250
    ##  9           300
    ## 10           380
    ## # ℹ 4,468 more rows
…
