…
``` r
# View the dataset that I prepared for analysis based on MDA_Deliverable1: 
view(prepared_building_data2)

# Assess the frequency of the variable "property_use"
freq_propuse<- prepared_building_data2 %>%
  filter(!is.na(property_use)) %>% #remove missing values 
  count(property_use) %>% #calculate the frequency
  arrange(desc(n)) #arrange the count numbers in descending order

# Print the frequency of the categories in "property_use" 
print(freq_propuse)
```

    ## # A tibble: 99 × 2
    ##    property_use                   n
    ##    <chr>                      <int>
    ##  1 Dwelling Uses              14050
    ##  2 Office Uses                 2857
    ##  3 Retail Uses                 1133
    ##  4 Service Uses                 854
    ##  5 Institutional Uses           407
    ##  6 Cultural/Recreational Uses   364
    ##  7 Manufacturing Uses           151
    ##  8 Office Uses,Retail Uses       91
    ##  9 Wholesale Uses                79
    ## 10 Dwelling Uses,Retail Uses     70
    ## # ℹ 89 more rows
…
``` r
# Variable "specific_use_category"
freq_specuse<- prepared_building_data2 %>%
  filter(!is.na(specific_use_category)) %>%
  count(specific_use_category) %>%
  arrange(desc(n))

# Print categories of the variable "specific_use_category"
print(freq_specuse)
```

    ## # A tibble: 442 × 2
    ##    specific_use_category               n
    ##    <chr>                           <int>
    ##  1 One-Family Dwelling              4547
    ##  2 One-family Dwelling w/Sec Suite  3572
    ##  3 Multiple Dwelling                2710
    ##  4 General Office                   2440
    ##  5 Laneway House                    1933
    ##  6 Retail Store                      903
    ##  7 Two-Family Dwelling               659
    ##  8 Restaurant - Class 1              404
    ##  9 Health Care Office                240
    ## 10 Not Applicable                    203
    ## # ℹ 432 more rows

``` r
# Variable "building_contractor"
freq_contractor<- prepared_building_data2 %>%
  filter(!is.na(building_contractor)) %>%
  count(building_contractor) %>%
  arrange(desc(n))

# Print categories of the variable "building_contractor"
print(freq_contractor)
```

    ## # A tibble: 2,563 × 2
    ##    building_contractor                     n
    ##    <chr>                               <int>
    ##  1 Canadian Excavating Ltd               304
    ##  2 East West Excavating Ltd              262
    ##  3 Hans Demolition and Excavating Ltd.   145
    ##  4 JVT Excavating & Demolition Ltd       143
    ##  5 Fusion Project Management Ltd         138
    ##  6 PTL Contracting Ltd                   131
    ##  7 All Right Trucking 99 Ltd             123
    ##  8 Reotech Construction Ltd              121
    ##  9 J & R Excavation & Demolition Ltd.    108
    ## 10 JVT EXCAVATING & DEMOLITION LTD        95
    ## # ℹ 2,553 more rows
…
``` r
### Cross tabulation between variables "prop_use2" and "year_cat"
prepared_building_data2 %>%
  group_by(prop_use2, year_cat) %>%
  summarize( 
    count=n(),
    proportions = n()/ nrow(prepared_building_data2)
) %>%
  arrange(desc(count))
```

    ## `summarise()` has grouped output by 'prop_use2'. You can override using the
    ## `.groups` argument.

    ## # A tibble: 49 × 4
    ## # Groups:   prop_use2 [13]
    ##    prop_use2    year_cat count proportions
    ##    <chr>        <chr>    <int>       <dbl>
    ##  1 Dwelling Use A         4781      0.232 
    ##  2 Dwelling Use B         4636      0.225 
    ##  3 Dwelling Use C         3727      0.181 
    ##  4 Dwelling Use D         1104      0.0535
    ##  5 Office Use   B         1045      0.0507
    ##  6 Office Use   A          917      0.0445
    ##  7 Office Use   C          870      0.0422
    ##  8 Retail Use   B          376      0.0182
    ##  9 Retail Use   C          355      0.0172
    ## 10 Retail Use   A          345      0.0167
    ## # ℹ 39 more rows
``` r
#### cross tabulation between variables "value" and "year_cat"
prepared_building_data2 %>%
  group_by(value, year_cat) %>%
  summarize( 
    count=n(),
    proportions = n()/ nrow(prepared_building_data2)
) %>%
  arrange(desc(count))
```

    ## `summarise()` has grouped output by 'value'. You can override using the
    ## `.groups` argument.

    ## # A tibble: 31 × 4
    ## # Groups:   value [9]
    ##    value             year_cat count proportions
    ##    <chr>             <chr>    <int>       <dbl>
    ##  1 Hundred Thousands B         2482      0.120 
    ##  2 Ten Thousands     A         2465      0.120 
    ##  3 Ten Thousands     B         2391      0.116 
    ##  4 Ten Thousands     C         2120      0.103 
    ##  5 Hundred Thousands A         2055      0.0996
    ##  6 Hundred Thousands C         1872      0.0908
    ##  7 Ones              A         1275      0.0618
    ##  8 Ones              B          999      0.0484
    ##  9 Ones              C          727      0.0353
    ## 10 Ten Thousands     D          616      0.0299
    ## # ℹ 21 more rows
…
 
# Extract the month from the 'issue_date' column
untidy_building_data <- building_permits_selected %>%
  mutate(month = month(as.Date(issue_date)))

# Pivot the 'month' values into separate columns with 'year' values using the spread()
untidy_building_data <- untidy_building_data %>%
  spread(key = month, value = year)

# Print the untidy data
print(untidy_building_data)
```

    ## # A tibble: 20,623 × 19
    ##    permit_number issue_date year_cat project_value value  type_of_work prop_use2
    ##    <chr>         <date>     <chr>            <dbl> <chr>  <chr>        <chr>    
    ##  1 BP-2016-02248 2017-02-01 A                    0 Ones   E            Dwelling…
    ##  2 BU468090      2017-02-01 A                    0 Ones   C            Dwelling…
    ##  3 DB-2016-04450 2017-02-01 A                35000 Ten T… A            Dwelling…
    ##  4 DB-2017-00131 2017-02-01 A                15000 Ten T… A            Office U…
    ##  5 DB452250      2017-02-01 A               181178 Hundr… C            Dwelling…
    ##  6 BP-2016-01458 2017-02-02 A                    0 Ones   E            Dwelling…
    ##  7 BP-2016-02022 2017-02-02 A                15000 Ten T… B            Dwelling…
    ##  8 BP-2016-02424 2017-02-02 A                    0 Ones   E            Dwelling…
    ##  9 BP-2016-02588 2017-02-02 A             65000000 Ten M… C            Dwelling…
    ## 10 BP-2016-03697 2017-02-02 A                25000 Ten T… A            Dwelling…
    ## # ℹ 20,613 more rows
    ## # ℹ 12 more variables: `1` <dbl>, `2` <dbl>, `3` <dbl>, `4` <dbl>, `5` <dbl>,
    ## #   `6` <dbl>, `7` <dbl>, `8` <dbl>, `9` <dbl>, `10` <dbl>, `11` <dbl>,
    ## #   `12` <dbl>

``` r
### Reverse the above code and return the data to its original form

# Use gather to convert the wide format to a long format 
tidy_building_data <- untidy_building_data %>%
  gather(key = "month", value = "year", 
         -permit_number, -issue_date, -year_cat, -value, -project_value, -type_of_work, -prop_use2, 
         na.rm = TRUE)

# Print the tidy data
print(tidy_building_data)
```

    ## # A tibble: 20,623 × 9
    ##    permit_number issue_date year_cat project_value value  type_of_work prop_use2
    ##    <chr>         <date>     <chr>            <dbl> <chr>  <chr>        <chr>    
    ##  1 BP-2018-06367 2019-01-02 C                 5000 Thous… A            Cultral/…
    ##  2 DB-2017-04992 2019-01-02 C                 5000 Thous… A            Dwelling…
    ##  3 BP-2018-03581 2019-01-03 C                15000 Ten T… B            Dwelling…
    ##  4 BP-2018-05408 2019-01-03 C               200000 Hundr… A            Dwelling…
    ##  5 BP-2018-05709 2019-01-03 C               106000 Hundr… A            Office U…
    ##  6 BP-2018-05836 2019-01-03 C                    0 Ones   E            Dwelling…
    ##  7 BP-2018-05863 2019-01-03 C                    0 Ones   E            Dwelling…
    ##  8 BP-2018-05969 2019-01-03 C                    0 Ones   E            Dwelling…
    ##  9 BP-2018-06359 2019-01-03 C                60000 Ten T… A            Office U…
    ## 10 BP-2018-06580 2019-01-03 C                90000 Ten T… A            Dwelling…
    ## # ℹ 20,613 more rows
    ## # ℹ 2 more variables: month <chr>, year <dbl>

``` r
#Original tidy dataset
Original_data <- tidy_building_data %>%
  select(-month)

#Print the original data
print(Original_data)
```

    ## # A tibble: 20,623 × 8
    ##    permit_number issue_date year_cat project_value value  type_of_work prop_use2
    ##    <chr>         <date>     <chr>            <dbl> <chr>  <chr>        <chr>    
    ##  1 BP-2018-06367 2019-01-02 C                 5000 Thous… A            Cultral/…
    ##  2 DB-2017-04992 2019-01-02 C                 5000 Thous… A            Dwelling…
    ##  3 BP-2018-03581 2019-01-03 C                15000 Ten T… B            Dwelling…
    ##  4 BP-2018-05408 2019-01-03 C               200000 Hundr… A            Dwelling…
    ##  5 BP-2018-05709 2019-01-03 C               106000 Hundr… A            Office U…
    ##  6 BP-2018-05836 2019-01-03 C                    0 Ones   E            Dwelling…
    ##  7 BP-2018-05863 2019-01-03 C                    0 Ones   E            Dwelling…
    ##  8 BP-2018-05969 2019-01-03 C                    0 Ones   E            Dwelling…
    ##  9 BP-2018-06359 2019-01-03 C                60000 Ten T… A            Office U…
    ## 10 BP-2018-06580 2019-01-03 C                90000 Ten T… A            Dwelling…
    ## # ℹ 20,613 more rows
    ## # ℹ 1 more variable: year <dbl>
…
``` r
# Widen the data so that we see the type_of_work by each categorical representation of the project_value
# Put "value" as its own column
untidy_building_data2 <- building_permits_selected %>%
    pivot_wider(names_from = value,
                values_from = type_of_work)

# Print the untidy data2
print(untidy_building_data2)
```

    ## # A tibble: 20,623 × 15
    ##    permit_number issue_date  year year_cat project_value prop_use2    Ones 
    ##    <chr>         <date>     <dbl> <chr>            <dbl> <chr>        <chr>
    ##  1 BP-2016-02248 2017-02-01  2017 A                    0 Dwelling Use E    
    ##  2 BU468090      2017-02-01  2017 A                    0 Dwelling Use C    
    ##  3 DB-2016-04450 2017-02-01  2017 A                35000 Dwelling Use <NA> 
    ##  4 DB-2017-00131 2017-02-01  2017 A                15000 Office Use   <NA> 
    ##  5 DB452250      2017-02-01  2017 A               181178 Dwelling Use <NA> 
    ##  6 BP-2016-01458 2017-02-02  2017 A                    0 Dwelling Use E    
    ##  7 BP-2016-02022 2017-02-02  2017 A                15000 Dwelling Use <NA> 
    ##  8 BP-2016-02424 2017-02-02  2017 A                    0 Dwelling Use E    
    ##  9 BP-2016-02588 2017-02-02  2017 A             65000000 Dwelling Use <NA> 
    ## 10 BP-2016-03697 2017-02-02  2017 A                25000 Dwelling Use <NA> 
    ## # ℹ 20,613 more rows
    ## # ℹ 8 more variables: `Ten Thousands` <chr>, `Hundred Thousands` <chr>,
    ## #   `Ten Millions` <chr>, Thousands <chr>, Millions <chr>, Hundreds <chr>,
    ## #   `Hundred Millions` <chr>, Tens <chr>
…
# Use pivot_longer to convert the wide format to a long format 
tidy_building_data2 <- untidy_building_data2 %>%
  pivot_longer(
    cols = -c(permit_number, issue_date, year_cat, project_value, prop_use2, year),
    names_to = "value", 
    values_to = "type_of_work",
    values_drop_na = TRUE
  )

# Print the tidy data, which should be now similar to the original dataset
print(tidy_building_data2)
```

    ## # A tibble: 20,623 × 8
    ##    permit_number issue_date  year year_cat project_value prop_use2    value     
    ##    <chr>         <date>     <dbl> <chr>            <dbl> <chr>        <chr>     
    ##  1 BP-2016-02248 2017-02-01  2017 A                    0 Dwelling Use Ones      
    ##  2 BU468090      2017-02-01  2017 A                    0 Dwelling Use Ones      
    ##  3 DB-2016-04450 2017-02-01  2017 A                35000 Dwelling Use Ten Thous…
    ##  4 DB-2017-00131 2017-02-01  2017 A                15000 Office Use   Ten Thous…
    ##  5 DB452250      2017-02-01  2017 A               181178 Dwelling Use Hundred T…
    ##  6 BP-2016-01458 2017-02-02  2017 A                    0 Dwelling Use Ones      
    ##  7 BP-2016-02022 2017-02-02  2017 A                15000 Dwelling Use Ten Thous…
    ##  8 BP-2016-02424 2017-02-02  2017 A                    0 Dwelling Use Ones      
    ##  9 BP-2016-02588 2017-02-02  2017 A             65000000 Dwelling Use Ten Milli…
    ## 10 BP-2016-03697 2017-02-02  2017 A                25000 Dwelling Use Ten Thous…
    ## # ℹ 20,613 more rows
    ## # ℹ 1 more variable: type_of_work <chr>
…
``` r
# The tidy() function extracts various statistics related to the model, including coefficients, standard errors, t-values, and p-values, into a tibble.

### Model 1
broom_tidy1 <- broom::tidy(model1)

# Extract term, p-value, and coefficients
selected_results <- broom_tidy1 %>% 
  select(term, p.value, estimate)

# Print the selected results
print(selected_results)
```

    ## # A tibble: 21 × 3
    ##    term                        p.value  estimate
    ##    <chr>                         <dbl>     <dbl>
    ##  1 (Intercept)                9.61e- 1  -125289.
    ##  2 type_of_workB              7.17e- 1   706086.
    ##  3 type_of_workC              1.76e-11 13954249.
    ##  4 type_of_workD              5.52e- 1  1522453.
    ##  5 type_of_workE              7.81e- 1   540006.
    ##  6 type_of_workF              7.58e- 1   711394.
    ##  7 prop_use2Dwelling Use      2.21e- 1 -3296079.
    ##  8 prop_use2Institutional Use 5.51e- 1 -1691217.
    ##  9 prop_use2Live_Work Use     9.26e- 5 19420307.
    ## 10 prop_use2Manufacturing Use 7.56e- 1  -910792.
    ## # ℹ 11 more rows
…
### Model 1

# Use broom's augment() function to extract model augmentation
augmentation1 <- broom::augment(model1)

# Extract original data, fitted values, and residuals
selected_augmentation1 <- augmentation1 %>%
  select(mean_project_value, type_of_work, prop_use2, year_cat, .fitted, .resid)

# Print the selected augmentation
print(selected_augmentation1)
```

    ## # A tibble: 194 × 6
    ##    mean_project_value type_of_work prop_use2            year_cat .fitted  .resid
    ##                 <dbl> <chr>        <chr>                <chr>      <dbl>   <dbl>
    ##  1            621478. A            Cultral/Creational … A        -1.25e5  7.47e5
    ##  2            252930. A            Cultral/Creational … B         1.31e6 -1.06e6
    ##  3           1060430. A            Cultral/Creational … C         1.50e6 -4.37e5
    ##  4            241651  A            Cultral/Creational … D         1.75e5  6.64e4
    ##  5            131714. A            Dwelling Use         A        -3.42e6  3.55e6
    ##  6            173776. A            Dwelling Use         B        -1.99e6  2.16e6
    ##  7            164131. A            Dwelling Use         C        -1.80e6  1.96e6
    ##  8            204124. A            Dwelling Use         D        -3.12e6  3.32e6
    ##  9            513435. A            Institutional Use    A        -1.82e6  2.33e6
    ## 10           1546316. A            Institutional Use    B        -3.81e5  1.93e6
    ## # ℹ 184 more rows
``` r
### Model 2

# Use broom's augment() function to extract model augmentation
augmentation2 <- broom::augment(model2)

# Extract original data, fitted values, and residuals
selected_augmentation2 <- augmentation2 %>%
  select(mean_project_value, type_of_work, prop_use2, .fitted, .resid)

# Print the selected augmentation
print(selected_augmentation2)
```

    ## # A tibble: 194 × 5
    ##    mean_project_value type_of_work prop_use2                .fitted   .resid
    ##                 <dbl> <chr>        <chr>                      <dbl>    <dbl>
    ##  1            621478. A            Cultral/Creational Use   781359. -159881.
    ##  2            252930. A            Cultral/Creational Use   781359. -528429.
    ##  3           1060430. A            Cultral/Creational Use   781359.  279071.
    ##  4            241651  A            Cultral/Creational Use   781359. -539708.
    ##  5            131714. A            Dwelling Use           -2650109. 2781823.
    ##  6            173776. A            Dwelling Use           -2650109. 2823886.
    ##  7            164131. A            Dwelling Use           -2650109. 2814241.
    ##  8            204124. A            Dwelling Use           -2650109. 2854233.
    ##  9            513435. A            Institutional Use      -1022602. 1536038.
    ## 10           1546316. A            Institutional Use      -1022602. 2568919.
    ## # ℹ 184 more rows
…
